<svg xmlns="http://www.w3.org/2000/svg" width="275.721" height="187.661">
  <g data-name="Group 17" transform="translate(-297 -546)">
    <path data-name="Rectangle 230" d="M362.59 546h200.131a10 10 0 0 1 10 10v167.66a10 10 0 0 1-10 10H362.59V546z" fill="#fff"/>
    <path data-name="Path 26" d="M297.255 556.165a12.781 12.781 0 0 0-.255 2.541v162.249a12.706 12.706 0 0 0 12.706 12.71h52.884v-177.5z" fill="#001a2d"/>
    <rect data-name="Rectangle 231" width="30.973" height="4.251" rx="1.673" transform="translate(303.68 593.93)" fill="#e0dfdf"/>
    <rect data-name="Rectangle 232" width="44.941" height="4.251" rx="1.673" transform="translate(303.68 606.684)" fill="#00c081"/>
    <rect data-name="Rectangle 233" width="38.868" height="4.251" rx="1.673" transform="translate(303.68 620.652)" fill="#e0dfdf"/>
    <rect data-name="Rectangle 234" width="17.005" height="4.251" rx="1.673" transform="translate(303.68 635.835)" fill="#e0dfdf"/>
    <g data-name="Group 14" fill="#e0dfdf">
      <path data-name="Path 27" d="M329.469 561.236l.933.933.933-.933-.933-.933zm-.623 0l1.555-1.555 1.557 1.555-1.557 1.556zm6.586-3.473l-2.2 2.2 2.515 2.514-.311.313-5.03-5.029-5.029 5.029-1.555-1.556 1.555-1.555.313.311-1.245 1.244.933.933 2.2-2.2-2.2-2.2-3.473 3.473 3.473 3.473 2.515-2.513 2.51 2.505 2.516-2.515 2.515 2.515 2.2-2.2-2.513-2.515.311-.311 2.515 2.514.958-.959z"/>
      <path data-name="Rectangle 235" d="M330.402 562.791l1.555-1.555.959.959-1.555 1.555z"/>
      <path data-name="Rectangle 236" d="M325.373 562.791l1.555-1.555.958.959-1.554 1.555z"/>
    </g>
    <path data-name="Rectangle 237" fill="#f7f7f7" d="M371.092 581.392h80.166v7.288h-80.166z"/>
    <path data-name="Rectangle 238" fill="#e0dfdf" d="M374.053 627.277h76.69v62.553h-76.69z"/>
    <path data-name="Rectangle 239" fill="#e0dfdf" d="M469.802 627.277h77.507v62.553h-77.507z"/>
    <path data-name="Rectangle 240" fill="#e2e0e0" d="M371.092 595.968h171.263v.607H371.092z"/>
    <g data-name="Group 15">
      <path data-name="Path 28" d="M309.706 546a12.71 12.71 0 0 0-12.452 10.165h275.467V554.3a8.3 8.3 0 0 0-8.3-8.3" fill="#001a2d"/>
    </g>
    <g data-name="Group 16">
      <path data-name="Path 29" d="M362.59 556.165h209.933a.2.2 0 0 0 .2-.2v-2.122c0-4.333-2.241-7.845-6.574-7.845H362.59z" fill="#efefef"/>
    </g>
    <path data-name="Rectangle 241" fill="#dc3545" d="M374.507 665.437h76.236v24.141h-76.236z"/>
  </g>
</svg>
