<?xml version="1.0" encoding="iso-8859-1"?>
<!-- Generator: Adobe Illustrator 22.0.1, SVG Export Plug-In . SVG Version: 6.00 Build 0)  -->
<svg version="1.1" id="Layer_1" xmlns="http://www.w3.org/2000/svg" xmlns:xlink="http://www.w3.org/1999/xlink" x="0px" y="0px"
	 viewBox="0 0 203.614 67.189" style="enable-background:new 0 0 203.614 67.189;" xml:space="preserve">
<g id="keyboard">
	
		<rect x="3.449" y="2.961" style="fill:none;stroke:#FFFFFF;stroke-width:6;stroke-linejoin:round;stroke-miterlimit:10;" width="195" height="59"/>
	<rect x="19.449" y="11.961" style="fill:#FFFFFF;" width="7" height="7"/>
	<rect x="30.449" y="11.961" style="fill:#FFFFFF;" width="7" height="7"/>
	<rect x="41.449" y="11.961" style="fill:#FFFFFF;" width="7" height="7"/>
	<rect x="52.449" y="11.961" style="fill:#FFFFFF;" width="7" height="7"/>
	<rect x="63.449" y="11.961" style="fill:#FFFFFF;" width="7" height="7"/>
	<rect x="74.449" y="11.961" style="fill:#FFFFFF;" width="7" height="7"/>
	<rect x="85.449" y="11.961" style="fill:#FFFFFF;" width="7" height="7"/>
	<rect x="96.449" y="11.961" style="fill:#FFFFFF;" width="7" height="7"/>
	<rect x="107.449" y="11.961" style="fill:#FFFFFF;" width="7" height="7"/>
	<polygon style="fill:#FFFFFF;" points="135.449,11.961 129.449,11.961 118.449,11.961 118.449,18.961 129.449,18.961 
		135.449,18.961 136.449,18.961 136.449,11.961 	"/>
	<rect x="151.449" y="11.961" style="fill:#FFFFFF;" width="7" height="7"/>
	<rect x="162.449" y="11.961" style="fill:#FFFFFF;" width="7" height="7"/>
	<rect x="173.449" y="11.961" style="fill:#FFFFFF;" width="7" height="7"/>
	<rect x="19.449" y="22.961" style="fill:#FFFFFF;" width="7" height="7"/>
	<rect x="30.449" y="22.961" style="fill:#FFFFFF;" width="7" height="7"/>
	<rect x="41.449" y="22.961" style="fill:#FFFFFF;" width="7" height="7"/>
	<rect x="52.449" y="22.961" style="fill:#FFFFFF;" width="7" height="7"/>
	<rect x="63.449" y="22.961" style="fill:#FFFFFF;" width="7" height="7"/>
	<rect x="74.449" y="22.961" style="fill:#FFFFFF;" width="7" height="7"/>
	<rect x="85.449" y="22.961" style="fill:#FFFFFF;" width="7" height="7"/>
	<rect x="96.449" y="22.961" style="fill:#FFFFFF;" width="7" height="7"/>
	<rect x="107.449" y="22.961" style="fill:#FFFFFF;" width="7" height="7"/>
	<rect x="118.449" y="22.961" style="fill:#FFFFFF;" width="7" height="7"/>
	<rect x="151.449" y="22.961" style="fill:#FFFFFF;" width="7" height="7"/>
	<rect x="162.449" y="22.961" style="fill:#FFFFFF;" width="7" height="7"/>
	<rect x="173.449" y="22.961" style="fill:#FFFFFF;" width="7" height="7"/>
	<rect x="19.449" y="33.961" style="fill:#FFFFFF;" width="7" height="7"/>
	<rect x="30.449" y="33.961" style="fill:#FFFFFF;" width="7" height="7"/>
	<rect x="41.449" y="33.961" style="fill:#FFFFFF;" width="7" height="7"/>
	<rect x="52.449" y="33.961" style="fill:#FFFFFF;" width="7" height="7"/>
	<rect x="63.449" y="33.961" style="fill:#FFFFFF;" width="7" height="7"/>
	<rect x="74.449" y="33.961" style="fill:#FFFFFF;" width="7" height="7"/>
	<rect x="85.449" y="33.961" style="fill:#FFFFFF;" width="7" height="7"/>
	<rect x="96.449" y="33.961" style="fill:#FFFFFF;" width="7" height="7"/>
	<rect x="107.449" y="33.961" style="fill:#FFFFFF;" width="7" height="7"/>
	<polygon style="fill:#FFFFFF;" points="129.449,22.961 129.449,25.961 129.449,29.961 129.449,33.961 118.449,33.961 
		118.449,40.961 129.449,40.961 135.449,40.961 136.449,40.961 136.449,29.961 136.449,25.961 136.449,22.961 	"/>
	<rect x="151.449" y="33.961" style="fill:#FFFFFF;" width="7" height="7"/>
	<rect x="162.449" y="33.961" style="fill:#FFFFFF;" width="7" height="7"/>
	<rect x="173.449" y="33.961" style="fill:#FFFFFF;" width="7" height="7"/>
	<rect x="19.449" y="44.961" style="fill:#FFFFFF;" width="7" height="7"/>
	<rect x="30.449" y="44.961" style="fill:#FFFFFF;" width="7" height="7"/>
	<rect x="41.449" y="44.961" style="fill:#FFFFFF;" width="7" height="7"/>
	<rect x="52.449" y="44.961" style="fill:#FFFFFF;" width="7" height="7"/>
	<rect x="63.449" y="44.961" style="fill:#FFFFFF;" width="7" height="7"/>
	<rect x="74.449" y="44.961" style="fill:#FFFFFF;" width="7" height="7"/>
	<rect x="85.449" y="44.961" style="fill:#FFFFFF;" width="7" height="7"/>
	<rect x="96.449" y="44.961" style="fill:#FFFFFF;" width="7" height="7"/>
	<rect x="107.449" y="44.961" style="fill:#FFFFFF;" width="7" height="7"/>
	<rect x="118.449" y="44.961" style="fill:#FFFFFF;" width="7" height="7"/>
	<rect x="129.449" y="44.961" style="fill:#FFFFFF;" width="7" height="7"/>
	<rect x="151.449" y="44.961" style="fill:#FFFFFF;" width="7" height="7"/>
	<rect x="162.449" y="44.961" style="fill:#FFFFFF;" width="7" height="7"/>
	<rect x="173.449" y="44.961" style="fill:#FFFFFF;" width="7" height="7"/>
</g>
</svg>
