<?xml version="1.0" encoding="iso-8859-1"?>
<!-- Generator: Adobe Illustrator 22.0.1, SVG Export Plug-In . SVG Version: 6.00 Build 0)  -->
<svg version="1.1" id="illustration" xmlns="http://www.w3.org/2000/svg" xmlns:xlink="http://www.w3.org/1999/xlink" x="0px"
	 y="0px" viewBox="0 0 46.144 74.948" style="enable-background:new 0 0 46.144 74.948;" xml:space="preserve">
<g>
	<path style="fill-rule:evenodd;clip-rule:evenodd;fill:#FFFFFF;" d="M40.705,1.828H4.889c-1.701,0-3.092,1.391-3.092,3.092v64.781
		c0,1.701,1.391,3.092,3.092,3.092h35.816c1.701,0,3.092-1.391,3.092-3.092V4.92C43.797,3.22,42.406,1.828,40.705,1.828z
		 M38.004,60.109H7.59V8.72h30.414V60.109z M26.418,66.276c0,2-1.621,3.621-3.621,3.621s-3.621-1.621-3.621-3.621
		c0-2,1.621-3.621,3.621-3.621S26.418,64.277,26.418,66.276z"/>
	<path style="fill-rule:evenodd;clip-rule:evenodd;fill:#FFFFFF;" d="M32.797,48.311h-13V20.814h13V48.311z M13.797,14.894v3.701h19
		v-3.701H13.797z M17.687,20.815h-3.89v3.701h3.89V20.815z M17.687,26.736h-3.89v3.701h3.89V26.736z M17.687,32.657h-3.89v3.701
		h3.89V32.657z M17.687,38.815h-3.89v3.701h3.89V38.815z M17.687,44.736h-3.89v3.701h3.89V44.736z"/>
</g>
</svg>
